%YAML 1.1
%TAG !u! tag:unity3d.com,2011:
--- !u!1 &6508289198471411903
GameObject:
  m_ObjectHideFlags: 0
  m_CorrespondingSourceObject: {fileID: 0}
  m_PrefabInstance: {fileID: 0}
  m_PrefabAsset: {fileID: 0}
  serializedVersion: 6
  m_Component:
  - component: {fileID: 6508289198471411902}
  - component: {fileID: 7290633231757166731}
  m_Layer: 0
  m_Name: Character
  m_TagString: Untagged
  m_Icon: {fileID: 0}
  m_NavMeshLayer: 0
  m_StaticEditorFlags: 0
  m_IsActive: 1
--- !u!4 &6508289198471411902
Transform:
  m_ObjectHideFlags: 0
  m_CorrespondingSourceObject: {fileID: 0}
  m_PrefabInstance: {fileID: 0}
  m_PrefabAsset: {fileID: 0}
  m_GameObject: {fileID: 6508289198471411903}
  m_LocalRotation: {x: -0, y: -0, z: -0, w: 1}
  m_LocalPosition: {x: 0, y: 0, z: 0}
  m_LocalScale: {x: 1, y: 1, z: 1}
  m_Children:
  - {fileID: 8096806268934637517}
  m_Father: {fileID: 0}
  m_RootOrder: 0
  m_LocalEulerAnglesHint: {x: 0, y: 0, z: 0}
--- !u!114 &7290633231757166731
MonoBehaviour:
  m_ObjectHideFlags: 0
  m_CorrespondingSourceObject: {fileID: 0}
  m_PrefabInstance: {fileID: 0}
  m_PrefabAsset: {fileID: 0}
  m_GameObject: {fileID: 6508289198471411903}
  m_Enabled: 1
  m_EditorHideFlags: 0
  m_Script: {fileID: 11500000, guid: e521c5c7885e40fd9c2aaaa4bf97234b, type: 3}
  m_Name: 
  m_EditorClassIdentifier: 
  controller: {fileID: 0}
  currentState: 0
--- !u!1001 &1618035108933038270
PrefabInstance:
  m_ObjectHideFlags: 0
  serializedVersion: 2
  m_Modification:
    m_TransformParent: {fileID: 6508289198471411902}
    m_Modifications:
    - target: {fileID: 7361635230183143283, guid: 566ddcd4cf8ae5f4495e0d738bf2912d, type: 3}
      propertyPath: m_RootOrder
      value: 0
      objectReference: {fileID: 0}
    - target: {fileID: 7361635230183143283, guid: 566ddcd4cf8ae5f4495e0d738bf2912d, type: 3}
      propertyPath: m_LocalPosition.x
      value: 0
      objectReference: {fileID: 0}
    - target: {fileID: 7361635230183143283, guid: 566ddcd4cf8ae5f4495e0d738bf2912d, type: 3}
      propertyPath: m_LocalPosition.y
      value: 0
      objectReference: {fileID: 0}
    - target: {fileID: 7361635230183143283, guid: 566ddcd4cf8ae5f4495e0d738bf2912d, type: 3}
      propertyPath: m_LocalPosition.z
      value: 0
      objectReference: {fileID: 0}
    - target: {fileID: 7361635230183143283, guid: 566ddcd4cf8ae5f4495e0d738bf2912d, type: 3}
      propertyPath: m_LocalRotation.w
      value: 0.7071068
      objectReference: {fileID: 0}
    - target: {fileID: 7361635230183143283, guid: 566ddcd4cf8ae5f4495e0d738bf2912d, type: 3}
      propertyPath: m_LocalRotation.x
      value: -0
      objectReference: {fileID: 0}
    - target: {fileID: 7361635230183143283, guid: 566ddcd4cf8ae5f4495e0d738bf2912d, type: 3}
      propertyPath: m_LocalRotation.y
      value: -0.7071068
      objectReference: {fileID: 0}
    - target: {fileID: 7361635230183143283, guid: 566ddcd4cf8ae5f4495e0d738bf2912d, type: 3}
      propertyPath: m_LocalRotation.z
      value: -0
      objectReference: {fileID: 0}
    - target: {fileID: 7361635230183143283, guid: 566ddcd4cf8ae5f4495e0d738bf2912d, type: 3}
      propertyPath: m_LocalEulerAnglesHint.x
      value: 0
      objectReference: {fileID: 0}
    - target: {fileID: 7361635230183143283, guid: 566ddcd4cf8ae5f4495e0d738bf2912d, type: 3}
      propertyPath: m_LocalEulerAnglesHint.y
      value: -90
      objectReference: {fileID: 0}
    - target: {fileID: 7361635230183143283, guid: 566ddcd4cf8ae5f4495e0d738bf2912d, type: 3}
      propertyPath: m_LocalEulerAnglesHint.z
      value: 0
      objectReference: {fileID: 0}
    - target: {fileID: 7881889306344779209, guid: 566ddcd4cf8ae5f4495e0d738bf2912d, type: 3}
      propertyPath: m_Name
      value: CharacterModel
      objectReference: {fileID: 0}
    - target: {fileID: 8089249351441550937, guid: 566ddcd4cf8ae5f4495e0d738bf2912d, type: 3}
      propertyPath: m_Convex
      value: 1
      objectReference: {fileID: 0}
    m_RemovedComponents:
    - {fileID: 8089249351441550937, guid: 566ddcd4cf8ae5f4495e0d738bf2912d, type: 3}
  m_SourcePrefab: {fileID: 100100000, guid: 566ddcd4cf8ae5f4495e0d738bf2912d, type: 3}
--- !u!4 &8096806268934637517 stripped
Transform:
  m_CorrespondingSourceObject: {fileID: 7361635230183143283, guid: 566ddcd4cf8ae5f4495e0d738bf2912d, type: 3}
  m_PrefabInstance: {fileID: 1618035108933038270}
  m_PrefabAsset: {fileID: 0}
